…
``` r
repeatedhours <- noOutlier %>%
  count(hour(started_at), member_casual)

repeatedhours
```

    ## # A tibble: 48 × 3
    ##    `hour(started_at)` member_casual     n
    ##                 <int> <chr>         <int>
    ##  1                  0 casual        43692
    ##  2                  0 member        35546
    ##  3                  1 casual        28213
    ##  4                  1 member        21836
    ##  5                  2 casual        17561
    ##  6                  2 member        12703
    ##  7                  3 casual        10508
    ##  8                  3 member         7904
    ##  9                  4 casual         7212
    ## 10                  4 member         8763
    ## # … with 38 more rows
…
``` r
#hist Starting time and day

repeatedhours_day <- noOutlier %>%
  count(hour(started_at),  WeekdayName, member_casual)

repeatedhours_day
```

    ## # A tibble: 336 × 4
    ##    `hour(started_at)` WeekdayName member_casual     n
    ##                 <int> <ord>       <chr>         <int>
    ##  1                  0 "dom\\."    casual        14106
    ##  2                  0 "dom\\."    member         9773
    ##  3                  0 "lun\\."    casual         3861
    ##  4                  0 "lun\\."    member         3039
    ##  5                  0 "mar\\."    casual         2741
    ##  6                  0 "mar\\."    member         2632
    ##  7                  0 "mié\\."    casual         2831
    ##  8                  0 "mié\\."    member         2976
    ##  9                  0 "jue\\."    casual         3592
    ## 10                  0 "jue\\."    member         3446
    ## # … with 326 more rows
…
